{
  "images" : [
    {
      "filename" : "iconfinder_211892_social_apple_icon_64px-1.png",
      "idiom" : "universal",
      "scale" : "1x"
    },
    {
      "filename" : "iconfinder_211892_social_apple_icon_64px copy.png",
      "idiom" : "universal",
      "scale" : "2x"
    },
    {
      "filename" : "iconfinder_211892_social_apple_icon_64px.png",
      "idiom" : "universal",
      "scale" : "3x"
    }
  ],
  "info" : {
    "author" : "xcode",
    "version" : 1
  }
}
